jsonFlickrApi({"photos":{"page":1,"pages":2488,"perpage":100,"total":"248788","photo":[{"id":"43080442920","owner":"137514246@N04","secret":"c02a2b9fd0","server":"1957","farm":2,"title":"How to Reset Samsung Galaxy ON5 SM-G5500","ispublic":1,"isfriend":0,"isfamily":0},{"id":"44172173074","owner":"90535065@N03","secret":"5365b42a36","server":"1946","farm":2,"title":"test123","ispublic":1,"isfriend":0,"isfamily":0},{"id":"43080435970","owner":"160962023@N06","secret":"0815e3373c","server":"1937","farm":2,"title":"Five Lessons That Will Teach You All You Need To Know About Audi A25 Price 25 | audi a25 price 25","ispublic":1,"isfriend":0,"isfamily":0},{"id":"44172171804","owner":"90535065@N03","secret":"1e3c50633f","server":"1969","farm":2,"title":"test123","ispublic":1,"isfriend":0,"isfamily":0},{"id":"43980136025","owner":"90535065@N03","secret":"78f03d84c4","server":"1941","farm":2,"title":"test123","ispublic":1,"isfriend":0,"isfamily":0},{"id":"31019104468","owner":"153842643@N06","secret":"3811d27130","server":"1937","farm":2,"title":"T.I. Takes The Trap Music Quiz | The Genius Test","ispublic":1,"isfriend":0,"isfamily":0},{"id":"31019004448","owner":"90535065@N03","secret":"1cca85c31e","server":"1933","farm":2,"title":"test123","ispublic":1,"isfriend":0,"isfamily":0},{"id":"44892459011","owner":"164279168@N03","secret":"543f945d42","server":"1936","farm":2,"title":"Ann Cara","ispublic":1,"isfriend":0,"isfamily":0},{"id":"43979994255","owner":"90535065@N03","secret":"27159f5d20","server":"1933","farm":2,"title":"test123","ispublic":1,"isfriend":0,"isfamily":0},{"id":"43079920630","owner":"91490443@N07","secret":"5463131ca6","server":"1976","farm":2,"title":"220918 319434","ispublic":1,"isfriend":0,"isfamily":0},{"id":"44892378851","owner":"77464293@N08","secret":"16b4323ff0","server":"1956","farm":2,"title":"test.jpg","ispublic":1,"isfriend":0,"isfamily":0},{"id":"44842059972","owner":"27055534@N00","secret":"11dfe67530","server":"1940","farm":2,"title":"Must get my eyes tested","ispublic":1,"isfriend":0,"isfamily":0},{"id":"31018798008","owner":"137514246@N04","secret":"d4966b7a5e","server":"1910","farm":2,"title":"How to Reset Samsung Galaxy ON5 SM-G550FY","ispublic":1,"isfriend":0,"isfamily":0},{"id":"44171741124","owner":"155899124@N08","secret":"69b99bcd95","server":"1913","farm":2,"title":"Why It Is Not The Best Time For Animation Vs Animator | animation vs animator","ispublic":1,"isfriend":0,"isfamily":0},{"id":"44841937862","owner":"157346062@N05","secret":"ce43039590","server":"1926","farm":2,"title":"Testing Hotter Shoes With A One Step, Two Step\u2026","ispublic":1,"isfriend":0,"isfamily":0},{"id":"43979687395","owner":"140832488@N05","secret":"332e44e124","server":"1909","farm":2,"title":"Jon Queen Amatex Capital","ispublic":1,"isfriend":0,"isfamily":0},{"id":"44171587494","owner":"160962023@N06","secret":"e4d06b3840","server":"1962","farm":2,"title":"19 Ideas To Organize Your Own Audi A19 Price 19 | audi a19 price 19","ispublic":1,"isfriend":0,"isfamily":0},{"id":"44171549624","owner":"57011506@N06","secret":"cf75059eea","server":"1926","farm":2,"title":"","ispublic":1,"isfriend":0,"isfamily":0},{"id":"31018459818","owner":"57011506@N06","secret":"b330c0b028","server":"1941","farm":2,"title":"","ispublic":1,"isfriend":0,"isfamily":0},{"id":"31018459538","owner":"57011506@N06","secret":"ebcd6ced66","server":"1912","farm":2,"title":"","ispublic":1,"isfriend":0,"isfamily":0},{"id":"29954990967","owner":"57011506@N06","secret":"e463971be4","server":"1941","farm":2,"title":"","ispublic":1,"isfriend":0,"isfamily":0},{"id":"44892078481","owner":"57011506@N06","secret":"76c6959ca1","server":"1937","farm":2,"title":"","ispublic":1,"isfriend":0,"isfamily":0},{"id":"29954990887","owner":"57011506@N06","secret":"be7ba8a2b8","server":"1908","farm":2,"title":"","ispublic":1,"isfriend":0,"isfamily":0},{"id":"44171549434","owner":"57011506@N06","secret":"1105fed6d1","server":"1949","farm":2,"title":"","ispublic":1,"isfriend":0,"isfamily":0},{"id":"43079722610","owner":"57011506@N06","secret":"e830e98ac5","server":"1955","farm":2,"title":"","ispublic":1,"isfriend":0,"isfamily":0},{"id":"43979571055","owner":"57011506@N06","secret":"db8ef1f8a2","server":"1941","farm":2,"title":"","ispublic":1,"isfriend":0,"isfamily":0},{"id":"43979570985","owner":"57011506@N06","secret":"979230350e","server":"1965","farm":2,"title":"","ispublic":1,"isfriend":0,"isfamily":0},{"id":"44171520304","owner":"57011506@N06","secret":"8a012e67b9","server":"1947","farm":2,"title":"","ispublic":1,"isfriend":0,"isfamily":0},{"id":"43979570925","owner":"57011506@N06","secret":"a6e18b92c6","server":"1914","farm":2,"title":"","ispublic":1,"isfriend":0,"isfamily":0},{"id":"31018436868","owner":"57011506@N06","secret":"3c73e822bc","server":"1909","farm":2,"title":"","ispublic":1,"isfriend":0,"isfamily":0},{"id":"44171519894","owner":"57011506@N06","secret":"e3a858f7b6","server":"1937","farm":2,"title":"","ispublic":1,"isfriend":0,"isfamily":0},{"id":"43979570555","owner":"57011506@N06","secret":"73a6a88da8","server":"1975","farm":2,"title":"","ispublic":1,"isfriend":0,"isfamily":0},{"id":"44171519934","owner":"57011506@N06","secret":"1f8dcd0817","server":"1939","farm":2,"title":"","ispublic":1,"isfriend":0,"isfamily":0},{"id":"43079722360","owner":"57011506@N06","secret":"75bac324a7","server":"1931","farm":2,"title":"","ispublic":1,"isfriend":0,"isfamily":0},{"id":"44892060871","owner":"57011506@N06","secret":"1b17efd3d6","server":"1950","farm":2,"title":"","ispublic":1,"isfriend":0,"isfamily":0},{"id":"29954960977","owner":"137514246@N04","secret":"50219a15c4","server":"1976","farm":2,"title":"How to Reset Samsung Z3 SM-Z300H","ispublic":1,"isfriend":0,"isfamily":0},{"id":"29954960167","owner":"57011506@N06","secret":"562aacb367","server":"1968","farm":2,"title":"","ispublic":1,"isfriend":0,"isfamily":0},{"id":"29954960247","owner":"57011506@N06","secret":"09c33b4fb5","server":"1949","farm":2,"title":"","ispublic":1,"isfriend":0,"isfamily":0},{"id":"31018417818","owner":"57011506@N06","secret":"6c849e2afa","server":"1944","farm":2,"title":"","ispublic":1,"isfriend":0,"isfamily":0},{"id":"44171506414","owner":"57011506@N06","secret":"f154969cee","server":"1911","farm":2,"title":"","ispublic":1,"isfriend":0,"isfamily":0},{"id":"29954960217","owner":"57011506@N06","secret":"f4ed41f57c","server":"1978","farm":2,"title":"","ispublic":1,"isfriend":0,"isfamily":0},{"id":"31018418088","owner":"57011506@N06","secret":"d3ab92eeba","server":"1972","farm":2,"title":"","ispublic":1,"isfriend":0,"isfamily":0},{"id":"44171506254","owner":"57011506@N06","secret":"9c19b1775c","server":"1972","farm":2,"title":"","ispublic":1,"isfriend":0,"isfamily":0},{"id":"29954959817","owner":"57011506@N06","secret":"1e744501aa","server":"1946","farm":2,"title":"","ispublic":1,"isfriend":0,"isfamily":0},{"id":"29954949537","owner":"57011506@N06","secret":"1fe2451213","server":"1949","farm":2,"title":"","ispublic":1,"isfriend":0,"isfamily":0},{"id":"43079707010","owner":"57011506@N06","secret":"edafa5d050","server":"1956","farm":2,"title":"","ispublic":1,"isfriend":0,"isfamily":0},{"id":"44841794802","owner":"57011506@N06","secret":"1a597185b1","server":"1933","farm":2,"title":"","ispublic":1,"isfriend":0,"isfamily":0},{"id":"44892039501","owner":"57011506@N06","secret":"200ce18446","server":"1972","farm":2,"title":"","ispublic":1,"isfriend":0,"isfamily":0},{"id":"44841794492","owner":"57011506@N06","secret":"fbbfc7d544","server":"1966","farm":2,"title":"","ispublic":1,"isfriend":0,"isfamily":0},{"id":"43979548145","owner":"57011506@N06","secret":"36fe00577b","server":"1976","farm":2,"title":"","ispublic":1,"isfriend":0,"isfamily":0},{"id":"43079697230","owner":"57011506@N06","secret":"a54db1c2c2","server":"1955","farm":2,"title":"","ispublic":1,"isfriend":0,"isfamily":0},{"id":"44892031051","owner":"57011506@N06","secret":"18db9537a0","server":"1920","farm":2,"title":"","ispublic":1,"isfriend":0,"isfamily":0},{"id":"31018396828","owner":"57011506@N06","secret":"de3a3eae7a","server":"1943","farm":2,"title":"","ispublic":1,"isfriend":0,"isfamily":0},{"id":"43079696260","owner":"57011506@N06","secret":"5fb16c19f9","server":"1914","farm":2,"title":"","ispublic":1,"isfriend":0,"isfamily":0},{"id":"44892030361","owner":"57011506@N06","secret":"74091df046","server":"1905","farm":2,"title":"","ispublic":1,"isfriend":0,"isfamily":0},{"id":"29954933117","owner":"57011506@N06","secret":"9149fe182f","server":"1942","farm":2,"title":"","ispublic":1,"isfriend":0,"isfamily":0},{"id":"43979534965","owner":"57011506@N06","secret":"6f4ea02a66","server":"1950","farm":2,"title":"","ispublic":1,"isfriend":0,"isfamily":0},{"id":"44892016011","owner":"57011506@N06","secret":"84fe76f0a2","server":"1947","farm":2,"title":"","ispublic":1,"isfriend":0,"isfamily":0},{"id":"43079672820","owner":"57011506@N06","secret":"39e1973e48","server":"1917","farm":2,"title":"","ispublic":1,"isfriend":0,"isfamily":0},{"id":"44892015851","owner":"57011506@N06","secret":"d336159f0f","server":"1921","farm":2,"title":"","ispublic":1,"isfriend":0,"isfamily":0},{"id":"44171455574","owner":"57011506@N06","secret":"d5c84e7d2e","server":"1903","farm":2,"title":"","ispublic":1,"isfriend":0,"isfamily":0},{"id":"44841773752","owner":"57011506@N06","secret":"b4677af220","server":"1975","farm":2,"title":"","ispublic":1,"isfriend":0,"isfamily":0},{"id":"44892003651","owner":"57011506@N06","secret":"528ab78613","server":"1952","farm":2,"title":"","ispublic":1,"isfriend":0,"isfamily":0},{"id":"44171455174","owner":"57011506@N06","secret":"6ca6950106","server":"1941","farm":2,"title":"","ispublic":1,"isfriend":0,"isfamily":0},{"id":"43079663610","owner":"57011506@N06","secret":"5dde4b95a7","server":"1934","farm":2,"title":"","ispublic":1,"isfriend":0,"isfamily":0},{"id":"29954913857","owner":"57011506@N06","secret":"1dec9fbd43","server":"1928","farm":2,"title":"","ispublic":1,"isfriend":0,"isfamily":0},{"id":"44171446264","owner":"57011506@N06","secret":"381e922c6c","server":"1939","farm":2,"title":"","ispublic":1,"isfriend":0,"isfamily":0},{"id":"43979521135","owner":"57011506@N06","secret":"56dd86420f","server":"1979","farm":2,"title":"","ispublic":1,"isfriend":0,"isfamily":0},{"id":"44171446454","owner":"57011506@N06","secret":"c9bf01ffc7","server":"1972","farm":2,"title":"","ispublic":1,"isfriend":0,"isfamily":0},{"id":"44841765162","owner":"57011506@N06","secret":"3b62a1f38d","server":"1980","farm":2,"title":"","ispublic":1,"isfriend":0,"isfamily":0},{"id":"44891993731","owner":"57011506@N06","secret":"99979d5b48","server":"1911","farm":2,"title":"","ispublic":1,"isfriend":0,"isfamily":0},{"id":"44891993721","owner":"57011506@N06","secret":"a09b6f1d1e","server":"1902","farm":2,"title":"","ispublic":1,"isfriend":0,"isfamily":0},{"id":"43079657090","owner":"57011506@N06","secret":"9d466b1171","server":"1963","farm":2,"title":"","ispublic":1,"isfriend":0,"isfamily":0},{"id":"31018357848","owner":"57011506@N06","secret":"a4af1769ca","server":"1916","farm":2,"title":"","ispublic":1,"isfriend":0,"isfamily":0},{"id":"44891982141","owner":"57011506@N06","secret":"61f07bf241","server":"1920","farm":2,"title":"","ispublic":1,"isfriend":0,"isfamily":0},{"id":"43079644350","owner":"57011506@N06","secret":"57cb2c5c74","server":"1940","farm":2,"title":"","ispublic":1,"isfriend":0,"isfamily":0},{"id":"31018357588","owner":"57011506@N06","secret":"85564e7216","server":"1936","farm":2,"title":"","ispublic":1,"isfriend":0,"isfamily":0},{"id":"44841752922","owner":"57011506@N06","secret":"d08986f82a","server":"1945","farm":2,"title":"","ispublic":1,"isfriend":0,"isfamily":0},{"id":"43079643960","owner":"57011506@N06","secret":"f071fd1aa7","server":"1958","farm":2,"title":"","ispublic":1,"isfriend":0,"isfamily":0},{"id":"44171429934","owner":"57011506@N06","secret":"e5803dd7ec","server":"1937","farm":2,"title":"","ispublic":1,"isfriend":0,"isfamily":0},{"id":"43079631640","owner":"144135088@N05","secret":"04424fc7b1","server":"1950","farm":2,"title":"21 Great Free Download 21d Animated Wallpapers Pc Ideas That You Can Share With Your Friends | free download 21d animated wallpapers pc","ispublic":1,"isfriend":0,"isfamily":0},{"id":"43079599760","owner":"32034748@N03","secret":"5a8c5cced3","server":"1928","farm":2,"title":"IMG_9094","ispublic":1,"isfriend":0,"isfamily":0},{"id":"44171368024","owner":"129581303@N06","secret":"5aa5cb9fde","server":"1908","farm":2,"title":"Scania L94 Injectors removed, sent away to be tested and refitted.","ispublic":1,"isfriend":0,"isfamily":0},{"id":"44171367984","owner":"129581303@N06","secret":"69f569270d","server":"1972","farm":2,"title":"Scania L94 Injectors removed, sent away to be tested and refitted.","ispublic":1,"isfriend":0,"isfamily":0},{"id":"44891913511","owner":"129581303@N06","secret":"72513c6979","server":"1926","farm":2,"title":"Scania L94 Injectors removed, sent away to be tested and refitted.","ispublic":1,"isfriend":0,"isfamily":0},{"id":"43079579040","owner":"129581303@N06","secret":"4b7c00f63d","server":"1979","farm":2,"title":"Scania L94 Injectors removed, sent away to be tested and refitted.","ispublic":1,"isfriend":0,"isfamily":0},{"id":"44891904171","owner":"129581303@N06","secret":"7409277770","server":"1967","farm":2,"title":"Scania L94 Injectors removed, sent away to be tested and refitted.","ispublic":1,"isfriend":0,"isfamily":0},{"id":"44891904061","owner":"129581303@N06","secret":"88f529ca54","server":"1945","farm":2,"title":"Scania L94 Injectors removed, sent away to be tested and refitted.","ispublic":1,"isfriend":0,"isfamily":0},{"id":"44171282094","owner":"57011506@N06","secret":"f545ae3034","server":"1919","farm":2,"title":"","ispublic":1,"isfriend":0,"isfamily":0},{"id":"43079503740","owner":"57011506@N06","secret":"622a814995","server":"1909","farm":2,"title":"","ispublic":1,"isfriend":0,"isfamily":0},{"id":"44891847331","owner":"57011506@N06","secret":"6464be8340","server":"1960","farm":2,"title":"","ispublic":1,"isfriend":0,"isfamily":0},{"id":"44891847471","owner":"57011506@N06","secret":"83dc8694b2","server":"1964","farm":2,"title":"","ispublic":1,"isfriend":0,"isfamily":0},{"id":"44891847191","owner":"57011506@N06","secret":"8c52c7c803","server":"1976","farm":2,"title":"","ispublic":1,"isfriend":0,"isfamily":0},{"id":"44891846811","owner":"57011506@N06","secret":"b7b4eb43d8","server":"1924","farm":2,"title":"","ispublic":1,"isfriend":0,"isfamily":0},{"id":"43079503280","owner":"57011506@N06","secret":"a5ccac4809","server":"1955","farm":2,"title":"","ispublic":1,"isfriend":0,"isfamily":0},{"id":"44891846901","owner":"57011506@N06","secret":"7e48853880","server":"1945","farm":2,"title":"","ispublic":1,"isfriend":0,"isfamily":0},{"id":"44891845731","owner":"57011506@N06","secret":"18a4b83d36","server":"1954","farm":2,"title":"","ispublic":1,"isfriend":0,"isfamily":0},{"id":"44841608732","owner":"157963799@N02","secret":"68ca294f33","server":"1929","farm":2,"title":"Does our environment affect the genes in our brains?","ispublic":1,"isfriend":0,"isfamily":0},{"id":"44171225054","owner":"160962023@N06","secret":"859fd75585","server":"1940","farm":2,"title":"The 30 Secrets You Will Never Know About Audi A30 Price 30 | audi a30 price 30","ispublic":1,"isfriend":0,"isfamily":0},{"id":"29954739327","owner":"137514246@N04","secret":"70eafcdc5b","server":"1910","farm":2,"title":"How to Reset Samsung Galaxy J1 ACE (SM-J110F)","ispublic":1,"isfriend":0,"isfamily":0}]},"stat":"ok"})
